[gd_scene load_steps=4 format=3 uid="uid://dgefdo6q2o86n"]

[ext_resource type="Script" path="res://Battle/Skill/CastBar.gd" id="1_dsyto"]

[sub_resource type="ViewportTexture" id="ViewportTexture_l7fub"]
viewport_path = NodePath("Sprite3D/SubViewport")

[sub_resource type="LabelSettings" id="LabelSettings_gg88d"]
font_size = 22

[node name="CastBar" type="Node3D"]
script = ExtResource("1_dsyto")

[node name="Sprite3D" type="Sprite3D" parent="."]
offset = Vector2(20, 0)
billboard = 1
texture = SubResource("ViewportTexture_l7fub")

[node name="SubViewport" type="SubViewport" parent="Sprite3D"]
transparent_bg = true
size = Vector2i(200, 35)

[node name="Control" type="Control" parent="Sprite3D/SubViewport"]
layout_mode = 3
anchors_preset = 15
anchor_right = 1.0
anchor_bottom = 1.0
grow_horizontal = 2
grow_vertical = 2
size_flags_horizontal = 3

[node name="Label" type="Label" parent="Sprite3D/SubViewport/Control"]
layout_mode = 2
offset_right = 98.0
offset_bottom = 26.0
size_flags_horizontal = 3
text = "Skill Name"
label_settings = SubResource("LabelSettings_gg88d")

[node name="ProgressBar" type="ProgressBar" parent="Sprite3D/SubViewport/Control"]
layout_mode = 2
offset_top = 23.0
offset_right = 150.0
offset_bottom = 29.0
size_flags_horizontal = 3
value = 50.0
show_percentage = false
