[gd_scene load_steps=5 format=3 uid="uid://cd8i8pdxj3gtn"]

[ext_resource type="Script" path="res://Battle/Skill/BasicBehaviours/LineAOE/Action.gd" id="1_1srwo"]

[sub_resource type="StandardMaterial3D" id="StandardMaterial3D_hinft"]
albedo_color = Color(1, 0, 0, 1)

[sub_resource type="BoxMesh" id="BoxMesh_bcwhg"]
material = SubResource("StandardMaterial3D_hinft")
size = Vector3(1, 0.01, 1)

[sub_resource type="BoxShape3D" id="BoxShape3D_ux2mr"]

[node name="LineAOEAction" type="Node3D"]
transform = Transform3D(1, 0, 0, 0, 1, 0, 0, 0, 10, 0, 0, 0)
script = ExtResource("1_1srwo")

[node name="MeshInstance3D" type="MeshInstance3D" parent="."]
transform = Transform3D(1, 0, 0, 0, 1, 0, 0, 0, 1, 0, 0, 0.5)
mesh = SubResource("BoxMesh_bcwhg")

[node name="Timer" type="Timer" parent="."]
one_shot = true
autostart = true

[node name="Area3D" type="Area3D" parent="."]
transform = Transform3D(1, 0, 0, 0, 1, 0, 0, 0, 1, 0, 0, 0.5)
collision_layer = 0
input_ray_pickable = false

[node name="CollisionShape3D" type="CollisionShape3D" parent="Area3D"]
transform = Transform3D(1, 0, 0, 0, 0.4, 0, 0, 0, 1, 0, 0, 0)
shape = SubResource("BoxShape3D_ux2mr")

[connection signal="timeout" from="Timer" to="." method="_on_timer_timeout"]
[connection signal="body_entered" from="Area3D" to="." method="_on_area_3d_body_entered"]
